^C:\USERS\ALEX\SOURCE\REPOS\NAMESCORE\DEBUG\NAMESCORE.OBJ
C:\USERS\ALEX\SOURCE\REPOS\NAMESCORE\DEBUG\NAMESCORE.EXE
C:\USERS\ALEX\SOURCE\REPOS\NAMESCORE\DEBUG\NAMESCORE.ILK
C:\USERS\ALEX\SOURCE\REPOS\NAMESCORE\DEBUG\NAMESCORE.PDB
